…
``` r
homicide %>%  
  nest(df = -city_state) %>% 
  mutate(models = map(.x = df, ~ glm(status ~ victim_age + victim_race + victim_sex, data = .x, family = "binomial")),
    results = map(models, broom::tidy)) %>% 
  select(city_state, results) %>% 
   unnest(results)  
```

    ## # A tibble: 188 × 6
    ##    city_state      term             estimate std.error statistic  p.value
    ##    <chr>           <chr>               <dbl>     <dbl>     <dbl>    <dbl>
    ##  1 Albuquerque, NM (Intercept)      -2.64      0.712      -3.70  2.12e- 4
    ##  2 Albuquerque, NM victim_age        0.0137    0.0110      1.24  2.13e- 1
    ##  3 Albuquerque, NM victim_raceBlack  0.503     0.448       1.12  2.61e- 1
    ##  4 Albuquerque, NM victim_sexMale    0.844     0.546       1.55  1.22e- 1
    ##  5 Atlanta, GA     (Intercept)      -1.92      0.400      -4.81  1.49e- 6
    ##  6 Atlanta, GA     victim_age        0.0114    0.00489     2.32  2.03e- 2
    ##  7 Atlanta, GA     victim_raceBlack  0.207     0.302       0.686 4.93e- 1
    ##  8 Atlanta, GA     victim_sexMale    0.669     0.227       2.95  3.22e- 3
    ##  9 Baltimore, MD   (Intercept)      -1.56      0.245      -6.38  1.75e-10
    ## 10 Baltimore, MD   victim_age        0.00520   0.00325     1.60  1.10e- 1
    ## # … with 178 more rows
